バリアント,e2wNO,"ID",天気,プロンプト,ネガティブ,メモ
eraTW,1,,晴れ,"🌤, sunshine",rainy,
eraTW,2,,快晴,"clear sky, sunshine",rainy,
eraTW,3,,薄曇,,sunshine,
eraTW,4,,曇り,,,
eraTW,5,,雨,,,
eraTW,6,,大雨,,,
eraTW,7,,霧雨,,,
eraTW,8,,霧,,,
eraTW,9,,雪,,,
eraTW,10,,吹雪,,,
eraTW,11,,細雪,,,
eraTW,12,,霧雪,,,
eraTW,13,,みぞれ,,,
eraTW,14,,あられ,,,
eraTW,15,1,春の月,spring,,
eraTW,16,2,夏の月,summer,,
eraTW,17,3,秋の月,autumn,,
eraTW,18,4,冬の月,winter,,